{
  "best_metric": null,
  "best_model_checkpoint": null,
  "epoch": 1.9999679291876462,
  "global_step": 46770,
  "is_hyper_param_search": false,
  "is_local_process_zero": true,
  "is_world_process_zero": true,
  "log_history": [
    {
      "epoch": 0.0,
      "learning_rate": 2.0000000000000002e-07,
      "loss": 2.3025,
      "step": 100
    },
    {
      "epoch": 0.01,
      "learning_rate": 4.0000000000000003e-07,
      "loss": 2.1141,
      "step": 200
    },
    {
      "epoch": 0.01,
      "learning_rate": 6.000000000000001e-07,
      "loss": 1.9536,
      "step": 300
    },
    {
      "epoch": 0.02,
      "learning_rate": 8.000000000000001e-07,
      "loss": 1.8745,
      "step": 400
    },
    {
      "epoch": 0.02,
      "learning_rate": 1.0000000000000002e-06,
      "loss": 1.7622,
      "step": 500
    },
    {
      "epoch": 0.03,
      "learning_rate": 1.2000000000000002e-06,
      "loss": 1.7203,
      "step": 600
    },
    {
      "epoch": 0.03,
      "learning_rate": 1.4000000000000001e-06,
      "loss": 1.7517,
      "step": 700
    },
    {
      "epoch": 0.03,
      "learning_rate": 1.6000000000000001e-06,
      "loss": 1.6075,
      "step": 800
    },
    {
      "epoch": 0.04,
      "learning_rate": 1.8e-06,
      "loss": 1.56,
      "step": 900
    },
    {
      "epoch": 0.04,
      "learning_rate": 2.0000000000000003e-06,
      "loss": 1.5739,
      "step": 1000
    },
    {
      "epoch": 0.05,
      "learning_rate": 2.2e-06,
      "loss": 1.5088,
      "step": 1100
    },
    {
      "epoch": 0.05,
      "learning_rate": 2.4000000000000003e-06,
      "loss": 1.5361,
      "step": 1200
    },
    {
      "epoch": 0.06,
      "learning_rate": 2.6e-06,
      "loss": 1.4935,
      "step": 1300
    },
    {
      "epoch": 0.06,
      "learning_rate": 2.8000000000000003e-06,
      "loss": 1.3969,
      "step": 1400
    },
    {
      "epoch": 0.06,
      "learning_rate": 3e-06,
      "loss": 1.4229,
      "step": 1500
    },
    {
      "epoch": 0.07,
      "learning_rate": 3.2000000000000003e-06,
      "loss": 1.4263,
      "step": 1600
    },
    {
      "epoch": 0.07,
      "learning_rate": 3.4000000000000005e-06,
      "loss": 1.3915,
      "step": 1700
    },
    {
      "epoch": 0.08,
      "learning_rate": 3.6e-06,
      "loss": 1.3573,
      "step": 1800
    },
    {
      "epoch": 0.08,
      "learning_rate": 3.8e-06,
      "loss": 1.3288,
      "step": 1900
    },
    {
      "epoch": 0.09,
      "learning_rate": 4.000000000000001e-06,
      "loss": 1.388,
      "step": 2000
    },
    {
      "epoch": 0.09,
      "learning_rate": 4.2000000000000004e-06,
      "loss": 1.3228,
      "step": 2100
    },
    {
      "epoch": 0.09,
      "learning_rate": 4.4e-06,
      "loss": 1.2579,
      "step": 2200
    },
    {
      "epoch": 0.1,
      "learning_rate": 4.6e-06,
      "loss": 1.2908,
      "step": 2300
    },
    {
      "epoch": 0.1,
      "learning_rate": 4.800000000000001e-06,
      "loss": 1.2916,
      "step": 2400
    },
    {
      "epoch": 0.11,
      "learning_rate": 5e-06,
      "loss": 1.273,
      "step": 2500
    },
    {
      "epoch": 0.11,
      "learning_rate": 5.2e-06,
      "loss": 1.2312,
      "step": 2600
    },
    {
      "epoch": 0.12,
      "learning_rate": 5.4e-06,
      "loss": 1.2789,
      "step": 2700
    },
    {
      "epoch": 0.12,
      "learning_rate": 5.600000000000001e-06,
      "loss": 1.2392,
      "step": 2800
    },
    {
      "epoch": 0.12,
      "learning_rate": 5.8e-06,
      "loss": 1.2743,
      "step": 2900
    },
    {
      "epoch": 0.13,
      "learning_rate": 6e-06,
      "loss": 1.25,
      "step": 3000
    },
    {
      "epoch": 0.13,
      "learning_rate": 6.2e-06,
      "loss": 1.1945,
      "step": 3100
    },
    {
      "epoch": 0.14,
      "learning_rate": 6.4000000000000006e-06,
      "loss": 1.213,
      "step": 3200
    },
    {
      "epoch": 0.14,
      "learning_rate": 6.6e-06,
      "loss": 1.1993,
      "step": 3300
    },
    {
      "epoch": 0.15,
      "learning_rate": 6.800000000000001e-06,
      "loss": 1.1863,
      "step": 3400
    },
    {
      "epoch": 0.15,
      "learning_rate": 7.000000000000001e-06,
      "loss": 1.159,
      "step": 3500
    },
    {
      "epoch": 0.15,
      "learning_rate": 7.2e-06,
      "loss": 1.2018,
      "step": 3600
    },
    {
      "epoch": 0.16,
      "learning_rate": 7.4e-06,
      "loss": 1.1724,
      "step": 3700
    },
    {
      "epoch": 0.16,
      "learning_rate": 7.6e-06,
      "loss": 1.1771,
      "step": 3800
    },
    {
      "epoch": 0.17,
      "learning_rate": 7.8e-06,
      "loss": 1.2131,
      "step": 3900
    },
    {
      "epoch": 0.17,
      "learning_rate": 8.000000000000001e-06,
      "loss": 1.1112,
      "step": 4000
    },
    {
      "epoch": 0.18,
      "learning_rate": 8.200000000000001e-06,
      "loss": 1.1517,
      "step": 4100
    },
    {
      "epoch": 0.18,
      "learning_rate": 8.400000000000001e-06,
      "loss": 1.0941,
      "step": 4200
    },
    {
      "epoch": 0.18,
      "learning_rate": 8.599999999999999e-06,
      "loss": 1.1373,
      "step": 4300
    },
    {
      "epoch": 0.19,
      "learning_rate": 8.8e-06,
      "loss": 1.1109,
      "step": 4400
    },
    {
      "epoch": 0.19,
      "learning_rate": 9e-06,
      "loss": 1.087,
      "step": 4500
    },
    {
      "epoch": 0.2,
      "learning_rate": 9.2e-06,
      "loss": 1.0935,
      "step": 4600
    },
    {
      "epoch": 0.2,
      "learning_rate": 9.4e-06,
      "loss": 1.1139,
      "step": 4700
    },
    {
      "epoch": 0.21,
      "learning_rate": 9.600000000000001e-06,
      "loss": 1.1015,
      "step": 4800
    },
    {
      "epoch": 0.21,
      "learning_rate": 9.800000000000001e-06,
      "loss": 1.0973,
      "step": 4900
    },
    {
      "epoch": 0.21,
      "learning_rate": 1e-05,
      "loss": 1.0934,
      "step": 5000
    },
    {
      "epoch": 0.22,
      "learning_rate": 1.02e-05,
      "loss": 1.0519,
      "step": 5100
    },
    {
      "epoch": 0.22,
      "learning_rate": 1.04e-05,
      "loss": 1.0794,
      "step": 5200
    },
    {
      "epoch": 0.23,
      "learning_rate": 1.06e-05,
      "loss": 1.0911,
      "step": 5300
    },
    {
      "epoch": 0.23,
      "learning_rate": 1.08e-05,
      "loss": 1.0661,
      "step": 5400
    },
    {
      "epoch": 0.24,
      "learning_rate": 1.1000000000000001e-05,
      "loss": 1.036,
      "step": 5500
    },
    {
      "epoch": 0.24,
      "learning_rate": 1.1200000000000001e-05,
      "loss": 1.0807,
      "step": 5600
    },
    {
      "epoch": 0.24,
      "learning_rate": 1.1400000000000001e-05,
      "loss": 1.0456,
      "step": 5700
    },
    {
      "epoch": 0.25,
      "learning_rate": 1.16e-05,
      "loss": 1.0724,
      "step": 5800
    },
    {
      "epoch": 0.25,
      "learning_rate": 1.18e-05,
      "loss": 1.0527,
      "step": 5900
    },
    {
      "epoch": 0.26,
      "learning_rate": 1.2e-05,
      "loss": 1.0566,
      "step": 6000
    },
    {
      "epoch": 0.26,
      "learning_rate": 1.22e-05,
      "loss": 1.0593,
      "step": 6100
    },
    {
      "epoch": 0.27,
      "learning_rate": 1.24e-05,
      "loss": 1.046,
      "step": 6200
    },
    {
      "epoch": 0.27,
      "learning_rate": 1.2600000000000001e-05,
      "loss": 1.0153,
      "step": 6300
    },
    {
      "epoch": 0.27,
      "learning_rate": 1.2800000000000001e-05,
      "loss": 1.0559,
      "step": 6400
    },
    {
      "epoch": 0.28,
      "learning_rate": 1.3000000000000001e-05,
      "loss": 1.0216,
      "step": 6500
    },
    {
      "epoch": 0.28,
      "learning_rate": 1.32e-05,
      "loss": 1.0351,
      "step": 6600
    },
    {
      "epoch": 0.29,
      "learning_rate": 1.3400000000000002e-05,
      "loss": 1.0228,
      "step": 6700
    },
    {
      "epoch": 0.29,
      "learning_rate": 1.3600000000000002e-05,
      "loss": 1.0029,
      "step": 6800
    },
    {
      "epoch": 0.3,
      "learning_rate": 1.3800000000000002e-05,
      "loss": 1.0062,
      "step": 6900
    },
    {
      "epoch": 0.3,
      "learning_rate": 1.4000000000000001e-05,
      "loss": 1.0389,
      "step": 7000
    },
    {
      "epoch": 0.3,
      "learning_rate": 1.42e-05,
      "loss": 1.0037,
      "step": 7100
    },
    {
      "epoch": 0.31,
      "learning_rate": 1.44e-05,
      "loss": 0.9952,
      "step": 7200
    },
    {
      "epoch": 0.31,
      "learning_rate": 1.4599999999999999e-05,
      "loss": 0.9998,
      "step": 7300
    },
    {
      "epoch": 0.32,
      "learning_rate": 1.48e-05,
      "loss": 1.0006,
      "step": 7400
    },
    {
      "epoch": 0.32,
      "learning_rate": 1.5e-05,
      "loss": 1.0385,
      "step": 7500
    },
    {
      "epoch": 0.32,
      "learning_rate": 1.52e-05,
      "loss": 1.0259,
      "step": 7600
    },
    {
      "epoch": 0.33,
      "learning_rate": 1.54e-05,
      "loss": 1.012,
      "step": 7700
    },
    {
      "epoch": 0.33,
      "learning_rate": 1.56e-05,
      "loss": 0.9909,
      "step": 7800
    },
    {
      "epoch": 0.34,
      "learning_rate": 1.58e-05,
      "loss": 1.0074,
      "step": 7900
    },
    {
      "epoch": 0.34,
      "learning_rate": 1.6000000000000003e-05,
      "loss": 0.9954,
      "step": 8000
    },
    {
      "epoch": 0.35,
      "learning_rate": 1.62e-05,
      "loss": 1.0158,
      "step": 8100
    },
    {
      "epoch": 0.35,
      "learning_rate": 1.6400000000000002e-05,
      "loss": 0.9822,
      "step": 8200
    },
    {
      "epoch": 0.35,
      "learning_rate": 1.66e-05,
      "loss": 0.9678,
      "step": 8300
    },
    {
      "epoch": 0.36,
      "learning_rate": 1.6800000000000002e-05,
      "loss": 0.9847,
      "step": 8400
    },
    {
      "epoch": 0.36,
      "learning_rate": 1.7000000000000003e-05,
      "loss": 1.0145,
      "step": 8500
    },
    {
      "epoch": 0.37,
      "learning_rate": 1.7199999999999998e-05,
      "loss": 0.9804,
      "step": 8600
    },
    {
      "epoch": 0.37,
      "learning_rate": 1.74e-05,
      "loss": 0.9353,
      "step": 8700
    },
    {
      "epoch": 0.38,
      "learning_rate": 1.76e-05,
      "loss": 0.9493,
      "step": 8800
    },
    {
      "epoch": 0.38,
      "learning_rate": 1.78e-05,
      "loss": 0.9829,
      "step": 8900
    },
    {
      "epoch": 0.38,
      "learning_rate": 1.8e-05,
      "loss": 0.979,
      "step": 9000
    },
    {
      "epoch": 0.39,
      "learning_rate": 1.8200000000000002e-05,
      "loss": 0.9485,
      "step": 9100
    },
    {
      "epoch": 0.39,
      "learning_rate": 1.84e-05,
      "loss": 0.9446,
      "step": 9200
    },
    {
      "epoch": 0.4,
      "learning_rate": 1.86e-05,
      "loss": 0.9399,
      "step": 9300
    },
    {
      "epoch": 0.4,
      "learning_rate": 1.88e-05,
      "loss": 0.9432,
      "step": 9400
    },
    {
      "epoch": 0.41,
      "learning_rate": 1.9e-05,
      "loss": 0.9259,
      "step": 9500
    },
    {
      "epoch": 0.41,
      "learning_rate": 1.9200000000000003e-05,
      "loss": 0.9791,
      "step": 9600
    },
    {
      "epoch": 0.41,
      "learning_rate": 1.94e-05,
      "loss": 0.9854,
      "step": 9700
    },
    {
      "epoch": 0.42,
      "learning_rate": 1.9600000000000002e-05,
      "loss": 0.9425,
      "step": 9800
    },
    {
      "epoch": 0.42,
      "learning_rate": 1.9800000000000004e-05,
      "loss": 0.9434,
      "step": 9900
    },
    {
      "epoch": 0.43,
      "learning_rate": 2e-05,
      "loss": 0.9685,
      "step": 10000
    },
    {
      "epoch": 0.43,
      "learning_rate": 2.0200000000000003e-05,
      "loss": 0.9538,
      "step": 10100
    },
    {
      "epoch": 0.44,
      "learning_rate": 2.04e-05,
      "loss": 0.9286,
      "step": 10200
    },
    {
      "epoch": 0.44,
      "learning_rate": 2.06e-05,
      "loss": 0.952,
      "step": 10300
    },
    {
      "epoch": 0.44,
      "learning_rate": 2.08e-05,
      "loss": 0.9805,
      "step": 10400
    },
    {
      "epoch": 0.45,
      "learning_rate": 2.1e-05,
      "loss": 0.9278,
      "step": 10500
    },
    {
      "epoch": 0.45,
      "learning_rate": 2.12e-05,
      "loss": 0.9219,
      "step": 10600
    },
    {
      "epoch": 0.46,
      "learning_rate": 2.1400000000000002e-05,
      "loss": 0.9732,
      "step": 10700
    },
    {
      "epoch": 0.46,
      "learning_rate": 2.16e-05,
      "loss": 0.9215,
      "step": 10800
    },
    {
      "epoch": 0.47,
      "learning_rate": 2.18e-05,
      "loss": 0.9677,
      "step": 10900
    },
    {
      "epoch": 0.47,
      "learning_rate": 2.2000000000000003e-05,
      "loss": 0.9144,
      "step": 11000
    },
    {
      "epoch": 0.47,
      "learning_rate": 2.22e-05,
      "loss": 0.9265,
      "step": 11100
    },
    {
      "epoch": 0.48,
      "learning_rate": 2.2400000000000002e-05,
      "loss": 0.922,
      "step": 11200
    },
    {
      "epoch": 0.48,
      "learning_rate": 2.26e-05,
      "loss": 0.9164,
      "step": 11300
    },
    {
      "epoch": 0.49,
      "learning_rate": 2.2800000000000002e-05,
      "loss": 0.924,
      "step": 11400
    },
    {
      "epoch": 0.49,
      "learning_rate": 2.3000000000000003e-05,
      "loss": 0.8944,
      "step": 11500
    },
    {
      "epoch": 0.5,
      "learning_rate": 2.32e-05,
      "loss": 0.9267,
      "step": 11600
    },
    {
      "epoch": 0.5,
      "learning_rate": 2.3400000000000003e-05,
      "loss": 0.9546,
      "step": 11700
    },
    {
      "epoch": 0.5,
      "learning_rate": 2.36e-05,
      "loss": 0.9212,
      "step": 11800
    },
    {
      "epoch": 0.51,
      "learning_rate": 2.38e-05,
      "loss": 0.895,
      "step": 11900
    },
    {
      "epoch": 0.51,
      "learning_rate": 2.4e-05,
      "loss": 0.891,
      "step": 12000
    },
    {
      "epoch": 0.52,
      "learning_rate": 2.4200000000000002e-05,
      "loss": 0.9526,
      "step": 12100
    },
    {
      "epoch": 0.52,
      "learning_rate": 2.44e-05,
      "loss": 0.8873,
      "step": 12200
    },
    {
      "epoch": 0.53,
      "learning_rate": 2.46e-05,
      "loss": 0.8913,
      "step": 12300
    },
    {
      "epoch": 0.53,
      "learning_rate": 2.48e-05,
      "loss": 0.9449,
      "step": 12400
    },
    {
      "epoch": 0.53,
      "learning_rate": 2.5e-05,
      "loss": 0.9016,
      "step": 12500
    },
    {
      "epoch": 0.54,
      "learning_rate": 2.5200000000000003e-05,
      "loss": 0.9293,
      "step": 12600
    },
    {
      "epoch": 0.54,
      "learning_rate": 2.54e-05,
      "loss": 0.8787,
      "step": 12700
    },
    {
      "epoch": 0.55,
      "learning_rate": 2.5600000000000002e-05,
      "loss": 0.9154,
      "step": 12800
    },
    {
      "epoch": 0.55,
      "learning_rate": 2.58e-05,
      "loss": 0.903,
      "step": 12900
    },
    {
      "epoch": 0.56,
      "learning_rate": 2.6000000000000002e-05,
      "loss": 0.887,
      "step": 13000
    },
    {
      "epoch": 0.56,
      "learning_rate": 2.6200000000000003e-05,
      "loss": 0.8858,
      "step": 13100
    },
    {
      "epoch": 0.56,
      "learning_rate": 2.64e-05,
      "loss": 0.916,
      "step": 13200
    },
    {
      "epoch": 0.57,
      "learning_rate": 2.6600000000000003e-05,
      "loss": 0.9224,
      "step": 13300
    },
    {
      "epoch": 0.57,
      "learning_rate": 2.6800000000000004e-05,
      "loss": 0.9318,
      "step": 13400
    },
    {
      "epoch": 0.58,
      "learning_rate": 2.7000000000000002e-05,
      "loss": 0.8873,
      "step": 13500
    },
    {
      "epoch": 0.58,
      "learning_rate": 2.7200000000000004e-05,
      "loss": 0.9086,
      "step": 13600
    },
    {
      "epoch": 0.59,
      "learning_rate": 2.7400000000000002e-05,
      "loss": 0.8785,
      "step": 13700
    },
    {
      "epoch": 0.59,
      "learning_rate": 2.7600000000000003e-05,
      "loss": 0.9255,
      "step": 13800
    },
    {
      "epoch": 0.59,
      "learning_rate": 2.7800000000000005e-05,
      "loss": 0.9138,
      "step": 13900
    },
    {
      "epoch": 0.6,
      "learning_rate": 2.8000000000000003e-05,
      "loss": 0.8394,
      "step": 14000
    },
    {
      "epoch": 0.6,
      "learning_rate": 2.8199999999999998e-05,
      "loss": 0.9313,
      "step": 14100
    },
    {
      "epoch": 0.61,
      "learning_rate": 2.84e-05,
      "loss": 0.8589,
      "step": 14200
    },
    {
      "epoch": 0.61,
      "learning_rate": 2.86e-05,
      "loss": 0.9052,
      "step": 14300
    },
    {
      "epoch": 0.62,
      "learning_rate": 2.88e-05,
      "loss": 0.8759,
      "step": 14400
    },
    {
      "epoch": 0.62,
      "learning_rate": 2.9e-05,
      "loss": 0.9013,
      "step": 14500
    },
    {
      "epoch": 0.62,
      "learning_rate": 2.9199999999999998e-05,
      "loss": 0.8958,
      "step": 14600
    },
    {
      "epoch": 0.63,
      "learning_rate": 2.94e-05,
      "loss": 0.9254,
      "step": 14700
    },
    {
      "epoch": 0.63,
      "learning_rate": 2.96e-05,
      "loss": 0.8138,
      "step": 14800
    },
    {
      "epoch": 0.64,
      "learning_rate": 2.98e-05,
      "loss": 0.853,
      "step": 14900
    },
    {
      "epoch": 0.64,
      "learning_rate": 3e-05,
      "loss": 0.8593,
      "step": 15000
    },
    {
      "epoch": 0.65,
      "learning_rate": 3.02e-05,
      "loss": 0.8937,
      "step": 15100
    },
    {
      "epoch": 0.65,
      "learning_rate": 3.04e-05,
      "loss": 0.854,
      "step": 15200
    },
    {
      "epoch": 0.65,
      "learning_rate": 3.06e-05,
      "loss": 0.9304,
      "step": 15300
    },
    {
      "epoch": 0.66,
      "learning_rate": 3.08e-05,
      "loss": 0.8668,
      "step": 15400
    },
    {
      "epoch": 0.66,
      "learning_rate": 3.1e-05,
      "loss": 0.8866,
      "step": 15500
    },
    {
      "epoch": 0.67,
      "learning_rate": 3.12e-05,
      "loss": 0.8656,
      "step": 15600
    },
    {
      "epoch": 0.67,
      "learning_rate": 3.1400000000000004e-05,
      "loss": 0.8629,
      "step": 15700
    },
    {
      "epoch": 0.68,
      "learning_rate": 3.16e-05,
      "loss": 0.8539,
      "step": 15800
    },
    {
      "epoch": 0.68,
      "learning_rate": 3.18e-05,
      "loss": 0.8882,
      "step": 15900
    },
    {
      "epoch": 0.68,
      "learning_rate": 3.2000000000000005e-05,
      "loss": 0.89,
      "step": 16000
    },
    {
      "epoch": 0.69,
      "learning_rate": 3.2200000000000003e-05,
      "loss": 0.8871,
      "step": 16100
    },
    {
      "epoch": 0.69,
      "learning_rate": 3.24e-05,
      "loss": 0.9124,
      "step": 16200
    },
    {
      "epoch": 0.7,
      "learning_rate": 3.26e-05,
      "loss": 0.8424,
      "step": 16300
    },
    {
      "epoch": 0.7,
      "learning_rate": 3.2800000000000004e-05,
      "loss": 0.8743,
      "step": 16400
    },
    {
      "epoch": 0.71,
      "learning_rate": 3.3e-05,
      "loss": 0.8824,
      "step": 16500
    },
    {
      "epoch": 0.71,
      "learning_rate": 3.32e-05,
      "loss": 0.896,
      "step": 16600
    },
    {
      "epoch": 0.71,
      "learning_rate": 3.3400000000000005e-05,
      "loss": 0.8417,
      "step": 16700
    },
    {
      "epoch": 0.72,
      "learning_rate": 3.3600000000000004e-05,
      "loss": 0.8864,
      "step": 16800
    },
    {
      "epoch": 0.72,
      "learning_rate": 3.38e-05,
      "loss": 0.8643,
      "step": 16900
    },
    {
      "epoch": 0.73,
      "learning_rate": 3.4000000000000007e-05,
      "loss": 0.8708,
      "step": 17000
    },
    {
      "epoch": 0.73,
      "learning_rate": 3.4200000000000005e-05,
      "loss": 0.8735,
      "step": 17100
    },
    {
      "epoch": 0.74,
      "learning_rate": 3.4399999999999996e-05,
      "loss": 0.8675,
      "step": 17200
    },
    {
      "epoch": 0.74,
      "learning_rate": 3.46e-05,
      "loss": 0.911,
      "step": 17300
    },
    {
      "epoch": 0.74,
      "learning_rate": 3.48e-05,
      "loss": 0.8373,
      "step": 17400
    },
    {
      "epoch": 0.75,
      "learning_rate": 3.5e-05,
      "loss": 0.8751,
      "step": 17500
    },
    {
      "epoch": 0.75,
      "learning_rate": 3.52e-05,
      "loss": 0.8761,
      "step": 17600
    },
    {
      "epoch": 0.76,
      "learning_rate": 3.54e-05,
      "loss": 0.8329,
      "step": 17700
    },
    {
      "epoch": 0.76,
      "learning_rate": 3.56e-05,
      "loss": 0.8671,
      "step": 17800
    },
    {
      "epoch": 0.77,
      "learning_rate": 3.58e-05,
      "loss": 0.8317,
      "step": 17900
    },
    {
      "epoch": 0.77,
      "learning_rate": 3.6e-05,
      "loss": 0.8702,
      "step": 18000
    },
    {
      "epoch": 0.77,
      "learning_rate": 3.62e-05,
      "loss": 0.871,
      "step": 18100
    },
    {
      "epoch": 0.78,
      "learning_rate": 3.6400000000000004e-05,
      "loss": 0.8428,
      "step": 18200
    },
    {
      "epoch": 0.78,
      "learning_rate": 3.66e-05,
      "loss": 0.8627,
      "step": 18300
    },
    {
      "epoch": 0.79,
      "learning_rate": 3.68e-05,
      "loss": 0.8372,
      "step": 18400
    },
    {
      "epoch": 0.79,
      "learning_rate": 3.7e-05,
      "loss": 0.841,
      "step": 18500
    },
    {
      "epoch": 0.8,
      "learning_rate": 3.72e-05,
      "loss": 0.8489,
      "step": 18600
    },
    {
      "epoch": 0.8,
      "learning_rate": 3.74e-05,
      "loss": 0.8278,
      "step": 18700
    },
    {
      "epoch": 0.8,
      "learning_rate": 3.76e-05,
      "loss": 0.8287,
      "step": 18800
    },
    {
      "epoch": 0.81,
      "learning_rate": 3.7800000000000004e-05,
      "loss": 0.8285,
      "step": 18900
    },
    {
      "epoch": 0.81,
      "learning_rate": 3.8e-05,
      "loss": 0.8221,
      "step": 19000
    },
    {
      "epoch": 0.82,
      "learning_rate": 3.82e-05,
      "loss": 0.8475,
      "step": 19100
    },
    {
      "epoch": 0.82,
      "learning_rate": 3.8400000000000005e-05,
      "loss": 0.8403,
      "step": 19200
    },
    {
      "epoch": 0.83,
      "learning_rate": 3.86e-05,
      "loss": 0.8463,
      "step": 19300
    },
    {
      "epoch": 0.83,
      "learning_rate": 3.88e-05,
      "loss": 0.8917,
      "step": 19400
    },
    {
      "epoch": 0.83,
      "learning_rate": 3.9000000000000006e-05,
      "loss": 0.8514,
      "step": 19500
    },
    {
      "epoch": 0.84,
      "learning_rate": 3.9200000000000004e-05,
      "loss": 0.8329,
      "step": 19600
    },
    {
      "epoch": 0.84,
      "learning_rate": 3.94e-05,
      "loss": 0.8255,
      "step": 19700
    },
    {
      "epoch": 0.85,
      "learning_rate": 3.960000000000001e-05,
      "loss": 0.8559,
      "step": 19800
    },
    {
      "epoch": 0.85,
      "learning_rate": 3.9800000000000005e-05,
      "loss": 0.8395,
      "step": 19900
    },
    {
      "epoch": 0.86,
      "learning_rate": 4e-05,
      "loss": 0.861,
      "step": 20000
    },
    {
      "epoch": 0.86,
      "learning_rate": 4.02e-05,
      "loss": 0.8444,
      "step": 20100
    },
    {
      "epoch": 0.86,
      "learning_rate": 4.0400000000000006e-05,
      "loss": 0.8649,
      "step": 20200
    },
    {
      "epoch": 0.87,
      "learning_rate": 4.0600000000000004e-05,
      "loss": 0.8469,
      "step": 20300
    },
    {
      "epoch": 0.87,
      "learning_rate": 4.08e-05,
      "loss": 0.8524,
      "step": 20400
    },
    {
      "epoch": 0.88,
      "learning_rate": 4.1e-05,
      "loss": 0.8182,
      "step": 20500
    },
    {
      "epoch": 0.88,
      "learning_rate": 4.12e-05,
      "loss": 0.8221,
      "step": 20600
    },
    {
      "epoch": 0.89,
      "learning_rate": 4.14e-05,
      "loss": 0.8705,
      "step": 20700
    },
    {
      "epoch": 0.89,
      "learning_rate": 4.16e-05,
      "loss": 0.8381,
      "step": 20800
    },
    {
      "epoch": 0.89,
      "learning_rate": 4.18e-05,
      "loss": 0.8119,
      "step": 20900
    },
    {
      "epoch": 0.9,
      "learning_rate": 4.2e-05,
      "loss": 0.8218,
      "step": 21000
    },
    {
      "epoch": 0.9,
      "learning_rate": 4.22e-05,
      "loss": 0.8545,
      "step": 21100
    },
    {
      "epoch": 0.91,
      "learning_rate": 4.24e-05,
      "loss": 0.8332,
      "step": 21200
    },
    {
      "epoch": 0.91,
      "learning_rate": 4.26e-05,
      "loss": 0.7789,
      "step": 21300
    },
    {
      "epoch": 0.92,
      "learning_rate": 4.2800000000000004e-05,
      "loss": 0.8261,
      "step": 21400
    },
    {
      "epoch": 0.92,
      "learning_rate": 4.3e-05,
      "loss": 0.8618,
      "step": 21500
    },
    {
      "epoch": 0.92,
      "learning_rate": 4.32e-05,
      "loss": 0.8398,
      "step": 21600
    },
    {
      "epoch": 0.93,
      "learning_rate": 4.3400000000000005e-05,
      "loss": 0.8404,
      "step": 21700
    },
    {
      "epoch": 0.93,
      "learning_rate": 4.36e-05,
      "loss": 0.7901,
      "step": 21800
    },
    {
      "epoch": 0.94,
      "learning_rate": 4.38e-05,
      "loss": 0.8335,
      "step": 21900
    },
    {
      "epoch": 0.94,
      "learning_rate": 4.4000000000000006e-05,
      "loss": 0.8051,
      "step": 22000
    },
    {
      "epoch": 0.95,
      "learning_rate": 4.4200000000000004e-05,
      "loss": 0.8523,
      "step": 22100
    },
    {
      "epoch": 0.95,
      "learning_rate": 4.44e-05,
      "loss": 0.8288,
      "step": 22200
    },
    {
      "epoch": 0.95,
      "learning_rate": 4.46e-05,
      "loss": 0.8536,
      "step": 22300
    },
    {
      "epoch": 0.96,
      "learning_rate": 4.4800000000000005e-05,
      "loss": 0.8143,
      "step": 22400
    },
    {
      "epoch": 0.96,
      "learning_rate": 4.5e-05,
      "loss": 0.8402,
      "step": 22500
    },
    {
      "epoch": 0.97,
      "learning_rate": 4.52e-05,
      "loss": 0.8563,
      "step": 22600
    },
    {
      "epoch": 0.97,
      "learning_rate": 4.5400000000000006e-05,
      "loss": 0.9027,
      "step": 22700
    },
    {
      "epoch": 0.97,
      "learning_rate": 4.5600000000000004e-05,
      "loss": 0.8526,
      "step": 22800
    },
    {
      "epoch": 0.98,
      "learning_rate": 4.58e-05,
      "loss": 0.7966,
      "step": 22900
    },
    {
      "epoch": 0.98,
      "learning_rate": 4.600000000000001e-05,
      "loss": 0.7887,
      "step": 23000
    },
    {
      "epoch": 0.99,
      "learning_rate": 4.6200000000000005e-05,
      "loss": 0.8662,
      "step": 23100
    },
    {
      "epoch": 0.99,
      "learning_rate": 4.64e-05,
      "loss": 0.8063,
      "step": 23200
    },
    {
      "epoch": 1.0,
      "learning_rate": 4.660000000000001e-05,
      "loss": 0.8167,
      "step": 23300
    },
    {
      "epoch": 1.0,
      "learning_rate": 4.6800000000000006e-05,
      "loss": 0.8431,
      "step": 23400
    },
    {
      "epoch": 1.0,
      "learning_rate": 4.7e-05,
      "loss": 0.8344,
      "step": 23500
    },
    {
      "epoch": 1.01,
      "learning_rate": 4.72e-05,
      "loss": 0.8427,
      "step": 23600
    },
    {
      "epoch": 1.01,
      "learning_rate": 4.74e-05,
      "loss": 0.7921,
      "step": 23700
    },
    {
      "epoch": 1.02,
      "learning_rate": 4.76e-05,
      "loss": 0.819,
      "step": 23800
    },
    {
      "epoch": 1.02,
      "learning_rate": 4.78e-05,
      "loss": 0.8059,
      "step": 23900
    },
    {
      "epoch": 1.03,
      "learning_rate": 4.8e-05,
      "loss": 0.8403,
      "step": 24000
    },
    {
      "epoch": 1.03,
      "learning_rate": 4.82e-05,
      "loss": 0.7992,
      "step": 24100
    },
    {
      "epoch": 1.03,
      "learning_rate": 4.8400000000000004e-05,
      "loss": 0.8505,
      "step": 24200
    },
    {
      "epoch": 1.04,
      "learning_rate": 4.86e-05,
      "loss": 0.796,
      "step": 24300
    },
    {
      "epoch": 1.04,
      "learning_rate": 4.88e-05,
      "loss": 0.834,
      "step": 24400
    },
    {
      "epoch": 1.05,
      "learning_rate": 4.9e-05,
      "loss": 0.8462,
      "step": 24500
    },
    {
      "epoch": 1.05,
      "learning_rate": 4.92e-05,
      "loss": 0.7827,
      "step": 24600
    },
    {
      "epoch": 1.06,
      "learning_rate": 4.94e-05,
      "loss": 0.7888,
      "step": 24700
    },
    {
      "epoch": 1.06,
      "learning_rate": 4.96e-05,
      "loss": 0.8554,
      "step": 24800
    },
    {
      "epoch": 1.06,
      "learning_rate": 4.9800000000000004e-05,
      "loss": 0.8056,
      "step": 24900
    },
    {
      "epoch": 1.07,
      "learning_rate": 5e-05,
      "loss": 0.7909,
      "step": 25000
    },
    {
      "epoch": 1.07,
      "learning_rate": 5.02e-05,
      "loss": 0.8385,
      "step": 25100
    },
    {
      "epoch": 1.08,
      "learning_rate": 5.0400000000000005e-05,
      "loss": 0.8481,
      "step": 25200
    },
    {
      "epoch": 1.08,
      "learning_rate": 5.0600000000000003e-05,
      "loss": 0.8378,
      "step": 25300
    },
    {
      "epoch": 1.09,
      "learning_rate": 5.08e-05,
      "loss": 0.8398,
      "step": 25400
    },
    {
      "epoch": 1.09,
      "learning_rate": 5.1000000000000006e-05,
      "loss": 0.8313,
      "step": 25500
    },
    {
      "epoch": 1.09,
      "learning_rate": 5.1200000000000004e-05,
      "loss": 0.8315,
      "step": 25600
    },
    {
      "epoch": 1.1,
      "learning_rate": 5.14e-05,
      "loss": 0.8187,
      "step": 25700
    },
    {
      "epoch": 1.1,
      "learning_rate": 5.16e-05,
      "loss": 0.784,
      "step": 25800
    },
    {
      "epoch": 1.11,
      "learning_rate": 5.1800000000000005e-05,
      "loss": 0.8222,
      "step": 25900
    },
    {
      "epoch": 1.11,
      "learning_rate": 5.2000000000000004e-05,
      "loss": 0.8136,
      "step": 26000
    },
    {
      "epoch": 1.12,
      "learning_rate": 5.22e-05,
      "loss": 0.8075,
      "step": 26100
    },
    {
      "epoch": 1.12,
      "learning_rate": 5.2400000000000007e-05,
      "loss": 0.7866,
      "step": 26200
    },
    {
      "epoch": 1.12,
      "learning_rate": 5.2600000000000005e-05,
      "loss": 0.8125,
      "step": 26300
    },
    {
      "epoch": 1.13,
      "learning_rate": 5.28e-05,
      "loss": 0.827,
      "step": 26400
    },
    {
      "epoch": 1.13,
      "learning_rate": 5.300000000000001e-05,
      "loss": 0.77,
      "step": 26500
    },
    {
      "epoch": 1.14,
      "learning_rate": 5.3200000000000006e-05,
      "loss": 0.8067,
      "step": 26600
    },
    {
      "epoch": 1.14,
      "learning_rate": 5.3400000000000004e-05,
      "loss": 0.8211,
      "step": 26700
    },
    {
      "epoch": 1.15,
      "learning_rate": 5.360000000000001e-05,
      "loss": 0.8561,
      "step": 26800
    },
    {
      "epoch": 1.15,
      "learning_rate": 5.380000000000001e-05,
      "loss": 0.8652,
      "step": 26900
    },
    {
      "epoch": 1.15,
      "learning_rate": 5.4000000000000005e-05,
      "loss": 0.8324,
      "step": 27000
    },
    {
      "epoch": 1.16,
      "learning_rate": 5.420000000000001e-05,
      "loss": 0.7921,
      "step": 27100
    },
    {
      "epoch": 1.16,
      "learning_rate": 5.440000000000001e-05,
      "loss": 0.7875,
      "step": 27200
    },
    {
      "epoch": 1.17,
      "learning_rate": 5.4600000000000006e-05,
      "loss": 0.8057,
      "step": 27300
    },
    {
      "epoch": 1.17,
      "learning_rate": 5.4800000000000004e-05,
      "loss": 0.8209,
      "step": 27400
    },
    {
      "epoch": 1.18,
      "learning_rate": 5.500000000000001e-05,
      "loss": 0.797,
      "step": 27500
    },
    {
      "epoch": 1.18,
      "learning_rate": 5.520000000000001e-05,
      "loss": 0.7969,
      "step": 27600
    },
    {
      "epoch": 1.18,
      "learning_rate": 5.5400000000000005e-05,
      "loss": 0.8079,
      "step": 27700
    },
    {
      "epoch": 1.19,
      "learning_rate": 5.560000000000001e-05,
      "loss": 0.813,
      "step": 27800
    },
    {
      "epoch": 1.19,
      "learning_rate": 5.580000000000001e-05,
      "loss": 0.8655,
      "step": 27900
    },
    {
      "epoch": 1.2,
      "learning_rate": 5.6000000000000006e-05,
      "loss": 0.8019,
      "step": 28000
    },
    {
      "epoch": 1.2,
      "learning_rate": 5.620000000000001e-05,
      "loss": 0.8133,
      "step": 28100
    },
    {
      "epoch": 1.21,
      "learning_rate": 5.6399999999999995e-05,
      "loss": 0.824,
      "step": 28200
    },
    {
      "epoch": 1.21,
      "learning_rate": 5.66e-05,
      "loss": 0.7727,
      "step": 28300
    },
    {
      "epoch": 1.21,
      "learning_rate": 5.68e-05,
      "loss": 0.8109,
      "step": 28400
    },
    {
      "epoch": 1.22,
      "learning_rate": 5.6999999999999996e-05,
      "loss": 0.8012,
      "step": 28500
    },
    {
      "epoch": 1.22,
      "learning_rate": 5.72e-05,
      "loss": 0.817,
      "step": 28600
    },
    {
      "epoch": 1.23,
      "learning_rate": 5.74e-05,
      "loss": 0.8308,
      "step": 28700
    },
    {
      "epoch": 1.23,
      "learning_rate": 5.76e-05,
      "loss": 0.8157,
      "step": 28800
    },
    {
      "epoch": 1.24,
      "learning_rate": 5.7799999999999995e-05,
      "loss": 0.7979,
      "step": 28900
    },
    {
      "epoch": 1.24,
      "learning_rate": 5.8e-05,
      "loss": 0.827,
      "step": 29000
    },
    {
      "epoch": 1.24,
      "learning_rate": 5.82e-05,
      "loss": 0.8267,
      "step": 29100
    },
    {
      "epoch": 1.25,
      "learning_rate": 5.8399999999999997e-05,
      "loss": 0.7875,
      "step": 29200
    },
    {
      "epoch": 1.25,
      "learning_rate": 5.86e-05,
      "loss": 0.7708,
      "step": 29300
    },
    {
      "epoch": 1.26,
      "learning_rate": 5.88e-05,
      "loss": 0.8274,
      "step": 29400
    },
    {
      "epoch": 1.26,
      "learning_rate": 5.9e-05,
      "loss": 0.8313,
      "step": 29500
    },
    {
      "epoch": 1.27,
      "learning_rate": 5.92e-05,
      "loss": 0.8084,
      "step": 29600
    },
    {
      "epoch": 1.27,
      "learning_rate": 5.94e-05,
      "loss": 0.7806,
      "step": 29700
    },
    {
      "epoch": 1.27,
      "learning_rate": 5.96e-05,
      "loss": 0.7642,
      "step": 29800
    },
    {
      "epoch": 1.28,
      "learning_rate": 5.9800000000000003e-05,
      "loss": 0.8242,
      "step": 29900
    },
    {
      "epoch": 1.28,
      "learning_rate": 6e-05,
      "loss": 0.8178,
      "step": 30000
    },
    {
      "epoch": 1.29,
      "learning_rate": 6.02e-05,
      "loss": 0.8409,
      "step": 30100
    },
    {
      "epoch": 1.29,
      "learning_rate": 6.04e-05,
      "loss": 0.787,
      "step": 30200
    },
    {
      "epoch": 1.3,
      "learning_rate": 6.06e-05,
      "loss": 0.8057,
      "step": 30300
    },
    {
      "epoch": 1.3,
      "learning_rate": 6.08e-05,
      "loss": 0.7978,
      "step": 30400
    },
    {
      "epoch": 1.3,
      "learning_rate": 6.1e-05,
      "loss": 0.7781,
      "step": 30500
    },
    {
      "epoch": 1.31,
      "learning_rate": 6.12e-05,
      "loss": 0.8262,
      "step": 30600
    },
    {
      "epoch": 1.31,
      "learning_rate": 6.14e-05,
      "loss": 0.7973,
      "step": 30700
    },
    {
      "epoch": 1.32,
      "learning_rate": 6.16e-05,
      "loss": 0.7609,
      "step": 30800
    },
    {
      "epoch": 1.32,
      "learning_rate": 6.18e-05,
      "loss": 0.8042,
      "step": 30900
    },
    {
      "epoch": 1.33,
      "learning_rate": 6.2e-05,
      "loss": 0.7722,
      "step": 31000
    },
    {
      "epoch": 1.33,
      "learning_rate": 6.220000000000001e-05,
      "loss": 0.7677,
      "step": 31100
    },
    {
      "epoch": 1.33,
      "learning_rate": 6.24e-05,
      "loss": 0.8052,
      "step": 31200
    },
    {
      "epoch": 1.34,
      "learning_rate": 6.26e-05,
      "loss": 0.8493,
      "step": 31300
    },
    {
      "epoch": 1.34,
      "learning_rate": 6.280000000000001e-05,
      "loss": 0.8228,
      "step": 31400
    },
    {
      "epoch": 1.35,
      "learning_rate": 6.3e-05,
      "loss": 0.8349,
      "step": 31500
    },
    {
      "epoch": 1.35,
      "learning_rate": 6.32e-05,
      "loss": 0.8013,
      "step": 31600
    },
    {
      "epoch": 1.36,
      "learning_rate": 6.340000000000001e-05,
      "loss": 0.777,
      "step": 31700
    },
    {
      "epoch": 1.36,
      "learning_rate": 6.36e-05,
      "loss": 0.7772,
      "step": 31800
    },
    {
      "epoch": 1.36,
      "learning_rate": 6.38e-05,
      "loss": 0.8106,
      "step": 31900
    },
    {
      "epoch": 1.37,
      "learning_rate": 6.400000000000001e-05,
      "loss": 0.8144,
      "step": 32000
    },
    {
      "epoch": 1.37,
      "learning_rate": 6.42e-05,
      "loss": 0.7458,
      "step": 32100
    },
    {
      "epoch": 1.38,
      "learning_rate": 6.440000000000001e-05,
      "loss": 0.8018,
      "step": 32200
    },
    {
      "epoch": 1.38,
      "learning_rate": 6.460000000000001e-05,
      "loss": 0.7937,
      "step": 32300
    },
    {
      "epoch": 1.39,
      "learning_rate": 6.48e-05,
      "loss": 0.7905,
      "step": 32400
    },
    {
      "epoch": 1.39,
      "learning_rate": 6.500000000000001e-05,
      "loss": 0.7916,
      "step": 32500
    },
    {
      "epoch": 1.39,
      "learning_rate": 6.52e-05,
      "loss": 0.768,
      "step": 32600
    },
    {
      "epoch": 1.4,
      "learning_rate": 6.54e-05,
      "loss": 0.8013,
      "step": 32700
    },
    {
      "epoch": 1.4,
      "learning_rate": 6.560000000000001e-05,
      "loss": 0.7829,
      "step": 32800
    },
    {
      "epoch": 1.41,
      "learning_rate": 6.58e-05,
      "loss": 0.7879,
      "step": 32900
    },
    {
      "epoch": 1.41,
      "learning_rate": 6.6e-05,
      "loss": 0.8123,
      "step": 33000
    },
    {
      "epoch": 1.42,
      "learning_rate": 6.620000000000001e-05,
      "loss": 0.7936,
      "step": 33100
    },
    {
      "epoch": 1.42,
      "learning_rate": 6.64e-05,
      "loss": 0.8148,
      "step": 33200
    },
    {
      "epoch": 1.42,
      "learning_rate": 6.66e-05,
      "loss": 0.8147,
      "step": 33300
    },
    {
      "epoch": 1.43,
      "learning_rate": 6.680000000000001e-05,
      "loss": 0.7822,
      "step": 33400
    },
    {
      "epoch": 1.43,
      "learning_rate": 6.7e-05,
      "loss": 0.8048,
      "step": 33500
    },
    {
      "epoch": 1.44,
      "learning_rate": 6.720000000000001e-05,
      "loss": 0.7965,
      "step": 33600
    },
    {
      "epoch": 1.44,
      "learning_rate": 6.740000000000001e-05,
      "loss": 0.81,
      "step": 33700
    },
    {
      "epoch": 1.45,
      "learning_rate": 6.76e-05,
      "loss": 0.8247,
      "step": 33800
    },
    {
      "epoch": 1.45,
      "learning_rate": 6.780000000000001e-05,
      "loss": 0.8027,
      "step": 33900
    },
    {
      "epoch": 1.45,
      "learning_rate": 6.800000000000001e-05,
      "loss": 0.7871,
      "step": 34000
    },
    {
      "epoch": 1.46,
      "learning_rate": 6.82e-05,
      "loss": 0.7749,
      "step": 34100
    },
    {
      "epoch": 1.46,
      "learning_rate": 6.840000000000001e-05,
      "loss": 0.7894,
      "step": 34200
    },
    {
      "epoch": 1.47,
      "learning_rate": 6.860000000000001e-05,
      "loss": 0.7725,
      "step": 34300
    },
    {
      "epoch": 1.47,
      "learning_rate": 6.879999999999999e-05,
      "loss": 0.81,
      "step": 34400
    },
    {
      "epoch": 1.48,
      "learning_rate": 6.9e-05,
      "loss": 0.7663,
      "step": 34500
    },
    {
      "epoch": 1.48,
      "learning_rate": 6.92e-05,
      "loss": 0.8481,
      "step": 34600
    },
    {
      "epoch": 1.48,
      "learning_rate": 6.939999999999999e-05,
      "loss": 0.8029,
      "step": 34700
    },
    {
      "epoch": 1.49,
      "learning_rate": 6.96e-05,
      "loss": 0.8099,
      "step": 34800
    },
    {
      "epoch": 1.49,
      "learning_rate": 6.98e-05,
      "loss": 0.8285,
      "step": 34900
    },
    {
      "epoch": 1.5,
      "learning_rate": 7e-05,
      "loss": 0.7855,
      "step": 35000
    },
    {
      "epoch": 1.5,
      "learning_rate": 7.02e-05,
      "loss": 0.8378,
      "step": 35100
    },
    {
      "epoch": 1.51,
      "learning_rate": 7.04e-05,
      "loss": 0.8242,
      "step": 35200
    },
    {
      "epoch": 1.51,
      "learning_rate": 7.06e-05,
      "loss": 0.7579,
      "step": 35300
    },
    {
      "epoch": 1.51,
      "learning_rate": 7.08e-05,
      "loss": 0.8132,
      "step": 35400
    },
    {
      "epoch": 1.52,
      "learning_rate": 7.1e-05,
      "loss": 0.7754,
      "step": 35500
    },
    {
      "epoch": 1.52,
      "learning_rate": 7.12e-05,
      "loss": 0.7808,
      "step": 35600
    },
    {
      "epoch": 1.53,
      "learning_rate": 7.14e-05,
      "loss": 0.816,
      "step": 35700
    },
    {
      "epoch": 1.53,
      "learning_rate": 7.16e-05,
      "loss": 0.7428,
      "step": 35800
    },
    {
      "epoch": 1.54,
      "learning_rate": 7.18e-05,
      "loss": 0.8079,
      "step": 35900
    },
    {
      "epoch": 1.54,
      "learning_rate": 7.2e-05,
      "loss": 0.8053,
      "step": 36000
    },
    {
      "epoch": 1.54,
      "learning_rate": 7.22e-05,
      "loss": 0.7684,
      "step": 36100
    },
    {
      "epoch": 1.55,
      "learning_rate": 7.24e-05,
      "loss": 0.7622,
      "step": 36200
    },
    {
      "epoch": 1.55,
      "learning_rate": 7.26e-05,
      "loss": 0.8164,
      "step": 36300
    },
    {
      "epoch": 1.56,
      "learning_rate": 7.280000000000001e-05,
      "loss": 0.8245,
      "step": 36400
    },
    {
      "epoch": 1.56,
      "learning_rate": 7.3e-05,
      "loss": 0.7877,
      "step": 36500
    },
    {
      "epoch": 1.57,
      "learning_rate": 7.32e-05,
      "loss": 0.8101,
      "step": 36600
    },
    {
      "epoch": 1.57,
      "learning_rate": 7.340000000000001e-05,
      "loss": 0.8056,
      "step": 36700
    },
    {
      "epoch": 1.57,
      "learning_rate": 7.36e-05,
      "loss": 0.787,
      "step": 36800
    },
    {
      "epoch": 1.58,
      "learning_rate": 7.38e-05,
      "loss": 0.7928,
      "step": 36900
    },
    {
      "epoch": 1.58,
      "learning_rate": 7.4e-05,
      "loss": 0.7947,
      "step": 37000
    },
    {
      "epoch": 1.59,
      "learning_rate": 7.42e-05,
      "loss": 0.7861,
      "step": 37100
    },
    {
      "epoch": 1.59,
      "learning_rate": 7.44e-05,
      "loss": 0.7581,
      "step": 37200
    },
    {
      "epoch": 1.6,
      "learning_rate": 7.46e-05,
      "loss": 0.7753,
      "step": 37300
    },
    {
      "epoch": 1.6,
      "learning_rate": 7.48e-05,
      "loss": 0.8201,
      "step": 37400
    },
    {
      "epoch": 1.6,
      "learning_rate": 7.500000000000001e-05,
      "loss": 0.7556,
      "step": 37500
    },
    {
      "epoch": 1.61,
      "learning_rate": 7.52e-05,
      "loss": 0.7804,
      "step": 37600
    },
    {
      "epoch": 1.61,
      "learning_rate": 7.54e-05,
      "loss": 0.7904,
      "step": 37700
    },
    {
      "epoch": 1.62,
      "learning_rate": 7.560000000000001e-05,
      "loss": 0.76,
      "step": 37800
    },
    {
      "epoch": 1.62,
      "learning_rate": 7.58e-05,
      "loss": 0.7874,
      "step": 37900
    },
    {
      "epoch": 1.62,
      "learning_rate": 7.6e-05,
      "loss": 0.7734,
      "step": 38000
    },
    {
      "epoch": 1.63,
      "learning_rate": 7.620000000000001e-05,
      "loss": 0.8079,
      "step": 38100
    },
    {
      "epoch": 1.63,
      "learning_rate": 7.64e-05,
      "loss": 0.7769,
      "step": 38200
    },
    {
      "epoch": 1.64,
      "learning_rate": 7.66e-05,
      "loss": 0.7829,
      "step": 38300
    },
    {
      "epoch": 1.64,
      "learning_rate": 7.680000000000001e-05,
      "loss": 0.7383,
      "step": 38400
    },
    {
      "epoch": 1.65,
      "learning_rate": 7.7e-05,
      "loss": 0.7897,
      "step": 38500
    },
    {
      "epoch": 1.65,
      "learning_rate": 7.72e-05,
      "loss": 0.7826,
      "step": 38600
    },
    {
      "epoch": 1.65,
      "learning_rate": 7.740000000000001e-05,
      "loss": 0.7874,
      "step": 38700
    },
    {
      "epoch": 1.66,
      "learning_rate": 7.76e-05,
      "loss": 0.7903,
      "step": 38800
    },
    {
      "epoch": 1.66,
      "learning_rate": 7.780000000000001e-05,
      "loss": 0.7806,
      "step": 38900
    },
    {
      "epoch": 1.67,
      "learning_rate": 7.800000000000001e-05,
      "loss": 0.845,
      "step": 39000
    },
    {
      "epoch": 1.67,
      "learning_rate": 7.82e-05,
      "loss": 0.7866,
      "step": 39100
    },
    {
      "epoch": 1.68,
      "learning_rate": 7.840000000000001e-05,
      "loss": 0.8328,
      "step": 39200
    },
    {
      "epoch": 1.68,
      "learning_rate": 7.860000000000001e-05,
      "loss": 0.7723,
      "step": 39300
    },
    {
      "epoch": 1.68,
      "learning_rate": 7.88e-05,
      "loss": 0.8307,
      "step": 39400
    },
    {
      "epoch": 1.69,
      "learning_rate": 7.900000000000001e-05,
      "loss": 0.7936,
      "step": 39500
    },
    {
      "epoch": 1.69,
      "learning_rate": 7.920000000000001e-05,
      "loss": 0.7844,
      "step": 39600
    },
    {
      "epoch": 1.7,
      "learning_rate": 7.94e-05,
      "loss": 0.802,
      "step": 39700
    },
    {
      "epoch": 1.7,
      "learning_rate": 7.960000000000001e-05,
      "loss": 0.8218,
      "step": 39800
    },
    {
      "epoch": 1.71,
      "learning_rate": 7.98e-05,
      "loss": 0.8084,
      "step": 39900
    },
    {
      "epoch": 1.71,
      "learning_rate": 8e-05,
      "loss": 0.8287,
      "step": 40000
    },
    {
      "epoch": 1.71,
      "learning_rate": 8.020000000000001e-05,
      "loss": 0.845,
      "step": 40100
    },
    {
      "epoch": 1.72,
      "learning_rate": 8.04e-05,
      "loss": 0.7761,
      "step": 40200
    },
    {
      "epoch": 1.72,
      "learning_rate": 8.060000000000001e-05,
      "loss": 0.7822,
      "step": 40300
    },
    {
      "epoch": 1.73,
      "learning_rate": 8.080000000000001e-05,
      "loss": 0.7678,
      "step": 40400
    },
    {
      "epoch": 1.73,
      "learning_rate": 8.1e-05,
      "loss": 0.7594,
      "step": 40500
    },
    {
      "epoch": 1.74,
      "learning_rate": 8.120000000000001e-05,
      "loss": 0.8358,
      "step": 40600
    },
    {
      "epoch": 1.74,
      "learning_rate": 8.14e-05,
      "loss": 0.7925,
      "step": 40700
    },
    {
      "epoch": 1.74,
      "learning_rate": 8.16e-05,
      "loss": 0.8181,
      "step": 40800
    },
    {
      "epoch": 1.75,
      "learning_rate": 8.18e-05,
      "loss": 0.7868,
      "step": 40900
    },
    {
      "epoch": 1.75,
      "learning_rate": 8.2e-05,
      "loss": 0.8002,
      "step": 41000
    },
    {
      "epoch": 1.76,
      "learning_rate": 8.22e-05,
      "loss": 0.7836,
      "step": 41100
    },
    {
      "epoch": 1.76,
      "learning_rate": 8.24e-05,
      "loss": 0.7963,
      "step": 41200
    },
    {
      "epoch": 1.77,
      "learning_rate": 8.26e-05,
      "loss": 0.7753,
      "step": 41300
    },
    {
      "epoch": 1.77,
      "learning_rate": 8.28e-05,
      "loss": 0.8112,
      "step": 41400
    },
    {
      "epoch": 1.77,
      "learning_rate": 8.3e-05,
      "loss": 0.7425,
      "step": 41500
    },
    {
      "epoch": 1.78,
      "learning_rate": 8.32e-05,
      "loss": 0.7951,
      "step": 41600
    },
    {
      "epoch": 1.78,
      "learning_rate": 8.34e-05,
      "loss": 0.8236,
      "step": 41700
    },
    {
      "epoch": 1.79,
      "learning_rate": 8.36e-05,
      "loss": 0.822,
      "step": 41800
    },
    {
      "epoch": 1.79,
      "learning_rate": 8.38e-05,
      "loss": 0.7789,
      "step": 41900
    },
    {
      "epoch": 1.8,
      "learning_rate": 8.4e-05,
      "loss": 0.7857,
      "step": 42000
    },
    {
      "epoch": 1.8,
      "learning_rate": 8.42e-05,
      "loss": 0.831,
      "step": 42100
    },
    {
      "epoch": 1.8,
      "learning_rate": 8.44e-05,
      "loss": 0.7757,
      "step": 42200
    },
    {
      "epoch": 1.81,
      "learning_rate": 8.46e-05,
      "loss": 0.7815,
      "step": 42300
    },
    {
      "epoch": 1.81,
      "learning_rate": 8.48e-05,
      "loss": 0.8171,
      "step": 42400
    },
    {
      "epoch": 1.82,
      "learning_rate": 8.5e-05,
      "loss": 0.7664,
      "step": 42500
    },
    {
      "epoch": 1.82,
      "learning_rate": 8.52e-05,
      "loss": 0.8252,
      "step": 42600
    },
    {
      "epoch": 1.83,
      "learning_rate": 8.54e-05,
      "loss": 0.8266,
      "step": 42700
    },
    {
      "epoch": 1.83,
      "learning_rate": 8.560000000000001e-05,
      "loss": 0.8357,
      "step": 42800
    },
    {
      "epoch": 1.83,
      "learning_rate": 8.58e-05,
      "loss": 0.8101,
      "step": 42900
    },
    {
      "epoch": 1.84,
      "learning_rate": 8.6e-05,
      "loss": 0.7388,
      "step": 43000
    },
    {
      "epoch": 1.84,
      "learning_rate": 8.620000000000001e-05,
      "loss": 0.8032,
      "step": 43100
    },
    {
      "epoch": 1.85,
      "learning_rate": 8.64e-05,
      "loss": 0.8066,
      "step": 43200
    },
    {
      "epoch": 1.85,
      "learning_rate": 8.66e-05,
      "loss": 0.8033,
      "step": 43300
    },
    {
      "epoch": 1.86,
      "learning_rate": 8.680000000000001e-05,
      "loss": 0.7788,
      "step": 43400
    },
    {
      "epoch": 1.86,
      "learning_rate": 8.7e-05,
      "loss": 0.8019,
      "step": 43500
    },
    {
      "epoch": 1.86,
      "learning_rate": 8.72e-05,
      "loss": 0.7915,
      "step": 43600
    },
    {
      "epoch": 1.87,
      "learning_rate": 8.740000000000001e-05,
      "loss": 0.7931,
      "step": 43700
    },
    {
      "epoch": 1.87,
      "learning_rate": 8.76e-05,
      "loss": 0.7993,
      "step": 43800
    },
    {
      "epoch": 1.88,
      "learning_rate": 8.78e-05,
      "loss": 0.8053,
      "step": 43900
    },
    {
      "epoch": 1.88,
      "learning_rate": 8.800000000000001e-05,
      "loss": 0.8317,
      "step": 44000
    },
    {
      "epoch": 1.89,
      "learning_rate": 8.82e-05,
      "loss": 0.8036,
      "step": 44100
    },
    {
      "epoch": 1.89,
      "learning_rate": 8.840000000000001e-05,
      "loss": 0.7662,
      "step": 44200
    },
    {
      "epoch": 1.89,
      "learning_rate": 8.86e-05,
      "loss": 0.7826,
      "step": 44300
    },
    {
      "epoch": 1.9,
      "learning_rate": 8.88e-05,
      "loss": 0.828,
      "step": 44400
    },
    {
      "epoch": 1.9,
      "learning_rate": 8.900000000000001e-05,
      "loss": 0.8084,
      "step": 44500
    },
    {
      "epoch": 1.91,
      "learning_rate": 8.92e-05,
      "loss": 0.7647,
      "step": 44600
    },
    {
      "epoch": 1.91,
      "learning_rate": 8.94e-05,
      "loss": 0.7991,
      "step": 44700
    },
    {
      "epoch": 1.92,
      "learning_rate": 8.960000000000001e-05,
      "loss": 0.8068,
      "step": 44800
    },
    {
      "epoch": 1.92,
      "learning_rate": 8.98e-05,
      "loss": 0.8121,
      "step": 44900
    },
    {
      "epoch": 1.92,
      "learning_rate": 9e-05,
      "loss": 0.792,
      "step": 45000
    },
    {
      "epoch": 1.93,
      "learning_rate": 9.020000000000001e-05,
      "loss": 0.7927,
      "step": 45100
    },
    {
      "epoch": 1.93,
      "learning_rate": 9.04e-05,
      "loss": 0.8256,
      "step": 45200
    },
    {
      "epoch": 1.94,
      "learning_rate": 9.06e-05,
      "loss": 0.7662,
      "step": 45300
    },
    {
      "epoch": 1.94,
      "learning_rate": 9.080000000000001e-05,
      "loss": 0.8113,
      "step": 45400
    },
    {
      "epoch": 1.95,
      "learning_rate": 9.1e-05,
      "loss": 0.7826,
      "step": 45500
    },
    {
      "epoch": 1.95,
      "learning_rate": 9.120000000000001e-05,
      "loss": 0.7661,
      "step": 45600
    },
    {
      "epoch": 1.95,
      "learning_rate": 9.140000000000001e-05,
      "loss": 0.8442,
      "step": 45700
    },
    {
      "epoch": 1.96,
      "learning_rate": 9.16e-05,
      "loss": 0.8131,
      "step": 45800
    },
    {
      "epoch": 1.96,
      "learning_rate": 9.180000000000001e-05,
      "loss": 0.7824,
      "step": 45900
    },
    {
      "epoch": 1.97,
      "learning_rate": 9.200000000000001e-05,
      "loss": 0.7876,
      "step": 46000
    },
    {
      "epoch": 1.97,
      "learning_rate": 9.22e-05,
      "loss": 0.764,
      "step": 46100
    },
    {
      "epoch": 1.98,
      "learning_rate": 9.240000000000001e-05,
      "loss": 0.8135,
      "step": 46200
    },
    {
      "epoch": 1.98,
      "learning_rate": 9.260000000000001e-05,
      "loss": 0.8553,
      "step": 46300
    },
    {
      "epoch": 1.98,
      "learning_rate": 9.28e-05,
      "loss": 0.7937,
      "step": 46400
    },
    {
      "epoch": 1.99,
      "learning_rate": 9.300000000000001e-05,
      "loss": 0.8264,
      "step": 46500
    },
    {
      "epoch": 1.99,
      "learning_rate": 9.320000000000002e-05,
      "loss": 0.7772,
      "step": 46600
    },
    {
      "epoch": 2.0,
      "learning_rate": 9.340000000000001e-05,
      "loss": 0.7886,
      "step": 46700
    },
    {
      "epoch": 2.0,
      "step": 46770,
      "total_flos": 1.8965641251950428e+18,
      "train_loss": 0.9038954959304154,
      "train_runtime": 217545.3547,
      "train_samples_per_second": 123.837,
      "train_steps_per_second": 0.215
    }
  ],
  "max_steps": 46770,
  "num_train_epochs": 2,
  "total_flos": 1.8965641251950428e+18,
  "trial_name": null,
  "trial_params": null
}
